{
    "success": true,
    "JsonName":"LayerJson",
		"data": [
			{
				"layerName": "United States GOES Infrared",
				"layerType": "WMS",
				"url": "https://mesonet.agron.iastate.edu/cgi-bin/wms/goes/conus_ir.cgi?",
				"layers": "goes_conus_ir",
				"service": "WMS",
				"format": "image/png",
				"transparent": "true",
				"style": "",
				"tileMatrixSetID": "",
                "credit": "Infrared data courtesy Iowa Environmental Mesonet",
                "maximumLevel": "",
                "alpha":1,
                "show":true

            },{
				"layerName": "美国气象雷达",
				"layerType": "WMS",
				"url": "https://mesonet.agron.iastate.edu/cgi-bin/wms/nexrad/n0r.cgi?",
				"layers": "nexrad-n0r",
				"service": "WMS",
				"format": "image/png",
				"transparent": "true",
				"style": "",
				"tileMatrixSetID": "",
                "credit": "Radar data courtesy Iowa Environmental Mesonet",
                "maximumLevel": "",
                "alpha":1,
                "show":true
            },{
				"layerName": "Grid",
				"layerType": "GridImageryProvider",
				"url": "",
				"layers": "",
				"service": "",
				"format": "",
				"transparent": "",
				"style": "",
				"tileMatrixSetID": "",
                "credit": "",
                "maximumLevel": "",
                "alpha":1,
                "show":false
            },
            {
				"layerName": "Tile Coordinates",
				"layerType": "TileCoordinatesImageryProvider",
				"url": "https://services.arcgisonline.com/ArcGIS/rest/services/World_Street_Map/MapServer",
				"layers": "",
				"service": "",
				"format": "",
				"transparent": "",
				"style": "",
				"tileMatrixSetID": "",
                "credit": "",
                "maximumLevel": "",
                "alpha":1,
                "show":false
            }
		]
}