{
    "success": true,
    "JsonName":"KML",
		"data": [
			{
				"layerName": "国家",
				"layerType": "KML",
				"url": "../../static/kml/gj.kml",
				"layers": "",
				"service": "KML",
				"format": "",
				"transparent": "true",
				"style": {
                    "LineWidth":2,
                    "FillStyle":"",
                    "alpha":0.5,
                    "LineColor":[0.5,1,0,0.5],
                    "pointColor":[0.5,1,0,0.5],
                    "FillColor":[0.5,1,0,0.5]
                },
				"tileMatrixSetID": "",
                "credit": "",
                "maximumLevel": "",
                "show":true

            },{
				"layerName": "二级构造",
				"layerType": "KML",
				"url": "../../static/kml/erjigz.kml",
				"layers": "",
				"service": "KML",
				"format": "",
				"transparent": "true",
				"style": {
                    "LineWidth":2,
                    "FillStyle":"",
                    "alpha":0.5,
                    "LineColor":[0.5,0.5,1,0.5],
                    "pointColor":[0.5,0.5,1,0.5],
                    "FillColor":[0.5,0.5,1,0.5]
                },
				"tileMatrixSetID": "",
                "credit": "",
                "maximumLevel": "",
                "show":true

            },{
				"layerName": "中国省界",
				"layerType": "KML",
				"url": "../../static/kml/中国省界.kml",
				"layers": "",
				"service": "KML",
				"format": "",
				"transparent": "true",
				"style": {
                    "LineWidth":2,
                    "FillStyle":"",
                    "alpha":0.5,
                    "LineColor":[0.5,0.5,1,0.5],
                    "pointColor":[0.5,1,0,0.5],
                    "FillColor":[0.5,0.5,1,0.5]
                },
				"tileMatrixSetID": "",
                "credit": "",
                "maximumLevel": "",
                "show":true

            },{
				"layerName": "盆地",
				"layerType": "KML",
				"url": "../../static/kml/doc.kml",
				"layers": "",
				"service": "KML",
				"format": "",
				"transparent": "true",
				"style": {
                    "LineWidth":2,
                    "FillStyle":"",
                    "alpha":0.5,
                    "LineColor":[0.5,0.5,1,0.5],
                    "pointColor":[0.5,1,0,0.5],
                    "FillColor":[0.5,0.5,1,0.5]
                },
				"tileMatrixSetID": "",
                "credit": "",
                "maximumLevel": "",
                "show":true

            },{
				"layerName": "盆地边界",
				"layerType": "KML",
				"url": "../../static/kml/盆地边界.kml",
				"layers": "",
				"service": "KML",
				"format": "",
				"transparent": "true",
				"style": {
                    "LineWidth":2,
                    "FillStyle":"",
                    "alpha":0.5,
                    "LineColor":[0.5,0.5,1,0.5],
                    "pointColor":[0.5,1,0,0.5],
                    "FillColor":[0.5,0,0,0.5]
                },
				"tileMatrixSetID": "",
                "credit": "",
                "maximumLevel": "",
                "show":true

            }
		]
}