<?xml version="1.0" encoding="UTF-8"?>
<kml xmlns="http://www.opengis.net/kml/2.2">
	<Document>
		<Placemark><ExtendedData></ExtendedData>
			<LineString><coordinates>
					117.69927978515624,41.283998505385924 116.2078857421875,40.20614809577503
			</coordinates></LineString>
		</Placemark>
		<Placemark>
			<ExtendedData><Data name="stroke">
			<value>#555555</value>
			</Data><Data name="stroke-width">
			<value>4</value></Data>
			<Data name="stroke-opacity">
			<value>1</value></Data><Data name="fill">
			<value>#a9011b</value></Data><Data name="fill-opacity">
			<value>0.3</value></Data></ExtendedData><Polygon>
			<outerBoundaryIs><LinearRing><coordinates>
					116.71874999999999,41.582579601430346 116.861572265625,41.02964338716638 117.41638183593749,41.566141964768384 116.71874999999999,41.582579601430346
			</coordinates></LinearRing></outerBoundaryIs></Polygon>
		</Placemark>
	</Document>
</kml>